# lists

# Write a Python program to find common items from two lists.

# Write a Python program to convert a list of multiple integers into a single integer
        Sample list: [11, 33, 50]
        Expected Output: 113350

# Write a Python program to replace the last element in a list with another list.
        Sample data : [1, 3, 5, 7, 9, 10], [2, 4, 6, 8]
        Expected Output: [1, 3, 5, 7, 9, 2, 4, 6, 8]


